simulation/qsim/exp3_2.msim.vcd
$comment
	File created using the following command:
		vcd file exp3_2.msim.vcd -direction
$end
$date
	Sat Apr 22 07:52:37 2023
$end
$version
	ModelSim Version 10.1d
$end
$timescale
	1ps
$end
$scope module exp3_2_vlg_vec_tst $end
$var reg 4 ! KEY_R [3:0] $end
$var reg 1 " clk $end
$var reg 1 # clr $end
$var reg 1 $ en $end
$var reg 1 % flag1 $end
$var reg 1 & flag2 $end
$var wire 1 ' KEY_C [3] $end
$var wire 1 ( KEY_C [2] $end
$var wire 1 ) KEY_C [1] $end
$var wire 1 * KEY_C [0] $end
$var wire 1 + N [31] $end
$var wire 1 , N [30] $end
$var wire 1 - N [29] $end
$var wire 1 . N [28] $end
$var wire 1 / N [27] $end
$var wire 1 0 N [26] $end
$var wire 1 1 N [25] $end
$var wire 1 2 N [24] $end
$var wire 1 3 N [23] $end
$var wire 1 4 N [22] $end
$var wire 1 5 N [21] $end
$var wire 1 6 N [20] $end
$var wire 1 7 N [19] $end
$var wire 1 8 N [18] $end
$var wire 1 9 N [17] $end
$var wire 1 : N [16] $end
$var wire 1 ; N [15] $end
$var wire 1 < N [14] $end
$var wire 1 = N [13] $end
$var wire 1 > N [12] $end
$var wire 1 ? N [11] $end
$var wire 1 @ N [10] $end
$var wire 1 A N [9] $end
$var wire 1 B N [8] $end
$var wire 1 C N [7] $end
$var wire 1 D N [6] $end
$var wire 1 E N [5] $end
$var wire 1 F N [4] $end
$var wire 1 G N [3] $end
$var wire 1 H N [2] $end
$var wire 1 I N [1] $end
$var wire 1 J N [0] $end
$var wire 1 K a [8] $end
$var wire 1 L a [7] $end
$var wire 1 M a [6] $end
$var wire 1 N a [5] $end
$var wire 1 O a [4] $end
$var wire 1 P a [3] $end
$var wire 1 Q a [2] $end
$var wire 1 R a [1] $end
$var wire 1 S a [0] $end
$var wire 1 T ans [15] $end
$var wire 1 U ans [14] $end
$var wire 1 V ans [13] $end
$var wire 1 W ans [12] $end
$var wire 1 X ans [11] $end
$var wire 1 Y ans [10] $end
$var wire 1 Z ans [9] $end
$var wire 1 [ ans [8] $end
$var wire 1 \ ans [7] $end
$var wire 1 ] ans [6] $end
$var wire 1 ^ ans [5] $end
$var wire 1 _ ans [4] $end
$var wire 1 ` ans [3] $end
$var wire 1 a ans [2] $end
$var wire 1 b ans [1] $end
$var wire 1 c ans [0] $end
$var wire 1 d b [7] $end
$var wire 1 e b [6] $end
$var wire 1 f b [5] $end
$var wire 1 g b [4] $end
$var wire 1 h b [3] $end
$var wire 1 i b [2] $end
$var wire 1 j b [1] $end
$var wire 1 k b [0] $end
$var wire 1 l c [7] $end
$var wire 1 m c [6] $end
$var wire 1 n c [5] $end
$var wire 1 o c [4] $end
$var wire 1 p c [3] $end
$var wire 1 q c [2] $end
$var wire 1 r c [1] $end
$var wire 1 s c [0] $end
$var wire 1 t codeout [7] $end
$var wire 1 u codeout [6] $end
$var wire 1 v codeout [5] $end
$var wire 1 w codeout [4] $end
$var wire 1 x codeout [3] $end
$var wire 1 y codeout [2] $end
$var wire 1 z codeout [1] $end
$var wire 1 { codeout [0] $end
$var wire 1 | cr_reg [3] $end
$var wire 1 } cr_reg [2] $end
$var wire 1 ~ cr_reg [1] $end
$var wire 1 !! cr_reg [0] $end
$var wire 1 "! flag3 $end
$var wire 1 #! hassetnum $end
$var wire 1 $! pt [2] $end
$var wire 1 %! pt [1] $end
$var wire 1 &! pt [0] $end
$var wire 1 '! sel [2] $end
$var wire 1 (! sel [1] $end
$var wire 1 )! sel [0] $end
$var wire 1 *! sampler $end
$scope module i1 $end
$var wire 1 +! gnd $end
$var wire 1 ,! vcc $end
$var wire 1 -! unknown $end
$var tri1 1 .! devclrn $end
$var tri1 1 /! devpor $end
$var tri1 1 0! devoe $end
$var wire 1 1! hassetnum~output_o $end
$var wire 1 2! flag3~output_o $end
$var wire 1 3! KEY_C[0]~output_o $end
$var wire 1 4! KEY_C[1]~output_o $end
$var wire 1 5! KEY_C[2]~output_o $end
$var wire 1 6! KEY_C[3]~output_o $end
$var wire 1 7! ans[0]~output_o $end
$var wire 1 8! ans[1]~output_o $end
$var wire 1 9! ans[2]~output_o $end
$var wire 1 :! ans[3]~output_o $end
$var wire 1 ;! ans[4]~output_o $end
$var wire 1 <! ans[5]~output_o $end
$var wire 1 =! ans[6]~output_o $end
$var wire 1 >! ans[7]~output_o $end
$var wire 1 ?! ans[8]~output_o $end
$var wire 1 @! ans[9]~output_o $end
$var wire 1 A! ans[10]~output_o $end
$var wire 1 B! ans[11]~output_o $end
$var wire 1 C! ans[12]~output_o $end
$var wire 1 D! ans[13]~output_o $end
$var wire 1 E! ans[14]~output_o $end
$var wire 1 F! ans[15]~output_o $end
$var wire 1 G! a[0]~output_o $end
$var wire 1 H! a[1]~output_o $end
$var wire 1 I! a[2]~output_o $end
$var wire 1 J! a[3]~output_o $end
$var wire 1 K! a[4]~output_o $end
$var wire 1 L! a[5]~output_o $end
$var wire 1 M! a[6]~output_o $end
$var wire 1 N! a[7]~output_o $end
$var wire 1 O! a[8]~output_o $end
$var wire 1 P! b[0]~output_o $end
$var wire 1 Q! b[1]~output_o $end
$var wire 1 R! b[2]~output_o $end
$var wire 1 S! b[3]~output_o $end
$var wire 1 T! b[4]~output_o $end
$var wire 1 U! b[5]~output_o $end
$var wire 1 V! b[6]~output_o $end
$var wire 1 W! b[7]~output_o $end
$var wire 1 X! c[0]~output_o $end
$var wire 1 Y! c[1]~output_o $end
$var wire 1 Z! c[2]~output_o $end
$var wire 1 [! c[3]~output_o $end
$var wire 1 \! c[4]~output_o $end
$var wire 1 ]! c[5]~output_o $end
$var wire 1 ^! c[6]~output_o $end
$var wire 1 _! c[7]~output_o $end
$var wire 1 `! cr_reg[0]~output_o $end
$var wire 1 a! cr_reg[1]~output_o $end
$var wire 1 b! cr_reg[2]~output_o $end
$var wire 1 c! cr_reg[3]~output_o $end
$var wire 1 d! N[0]~output_o $end
$var wire 1 e! N[1]~output_o $end
$var wire 1 f! N[2]~output_o $end
$var wire 1 g! N[3]~output_o $end
$var wire 1 h! N[4]~output_o $end
$var wire 1 i! N[5]~output_o $end
$var wire 1 j! N[6]~output_o $end
$var wire 1 k! N[7]~output_o $end
$var wire 1 l! N[8]~output_o $end
$var wire 1 m! N[9]~output_o $end
$var wire 1 n! N[10]~output_o $end
$var wire 1 o! N[11]~output_o $end
$var wire 1 p! N[12]~output_o $end
$var wire 1 q! N[13]~output_o $end
$var wire 1 r! N[14]~output_o $end
$var wire 1 s! N[15]~output_o $end
$var wire 1 t! N[16]~output_o $end
$var wire 1 u! N[17]~output_o $end
$var wire 1 v! N[18]~output_o $end
$var wire 1 w! N[19]~output_o $end
$var wire 1 x! N[20]~output_o $end
$var wire 1 y! N[21]~output_o $end
$var wire 1 z! N[22]~output_o $end
$var wire 1 {! N[23]~output_o $end
$var wire 1 |! N[24]~output_o $end
$var wire 1 }! N[25]~output_o $end
$var wire 1 ~! N[26]~output_o $end
$var wire 1 !" N[27]~output_o $end
$var wire 1 "" N[28]~output_o $end
$var wire 1 #" N[29]~output_o $end
$var wire 1 $" N[30]~output_o $end
$var wire 1 %" N[31]~output_o $end
$var wire 1 &" codeout[0]~output_o $end
$var wire 1 '" codeout[1]~output_o $end
$var wire 1 (" codeout[2]~output_o $end
$var wire 1 )" codeout[3]~output_o $end
$var wire 1 *" codeout[4]~output_o $end
$var wire 1 +" codeout[5]~output_o $end
$var wire 1 ," codeout[6]~output_o $end
$var wire 1 -" codeout[7]~output_o $end
$var wire 1 ." sel[0]~output_o $end
$var wire 1 /" sel[1]~output_o $end
$var wire 1 0" sel[2]~output_o $end
$var wire 1 1" pt[0]~output_o $end
$var wire 1 2" pt[1]~output_o $end
$var wire 1 3" pt[2]~output_o $end
$var wire 1 4" clk~input_o $end
$var wire 1 5" clk~inputclkctrl_outclk $end
$var wire 1 6" en~input_o $end
$var wire 1 7" hassetnum~reg0_q $end
$var wire 1 8" flag1~input_o $end
$var wire 1 9" flag2~input_o $end
$var wire 1 :" flag3~0_combout $end
$var wire 1 ;" km|cnt[0]~1_combout $end
$var wire 1 <" clr~input_o $end
$var wire 1 =" km|cnt[1]~0_combout $end
$var wire 1 >" km|Decoder0~0_combout $end
$var wire 1 ?" km|Decoder0~1_combout $end
$var wire 1 @" km|Decoder0~2_combout $end
$var wire 1 A" km|Decoder0~3_combout $end
$var wire 1 B" KEY_R[1]~input_o $end
$var wire 1 C" KEY_R[2]~input_o $end
$var wire 1 D" KEY_R[0]~input_o $end
$var wire 1 E" KEY_R[3]~input_o $end
$var wire 1 F" km|Equal0~0_combout $end
$var wire 1 G" km|num~1_combout $end
$var wire 1 H" km|Selector3~2_combout $end
$var wire 1 I" km|Selector3~3_combout $end
$var wire 1 J" km|Selector2~2_combout $end
$var wire 1 K" km|Selector2~3_combout $end
$var wire 1 L" km|Selector2~4_combout $end
$var wire 1 M" km|out[5]~feeder_combout $end
$var wire 1 N" km|num~2_combout $end
$var wire 1 O" km|Selector1~2_combout $end
$var wire 1 P" km|Selector1~3_combout $end
$var wire 1 Q" km|Selector1~4_combout $end
$var wire 1 R" km|out[6]~feeder_combout $end
$var wire 1 S" cr_reg[0]~0_combout $end
$var wire 1 T" cr_reg[0]~reg0_q $end
$var wire 1 U" cr_reg[0]~1_combout $end
$var wire 1 V" cr_reg[1]~2_combout $end
$var wire 1 W" cr_reg[1]~reg0_q $end
$var wire 1 X" Add1~0_combout $end
$var wire 1 Y" cr_reg[2]~3_combout $end
$var wire 1 Z" cr_reg[2]~reg0_q $end
$var wire 1 [" Add1~1_combout $end
$var wire 1 \" cr_reg[3]~4_combout $end
$var wire 1 ]" cr_reg[3]~reg0_q $end
$var wire 1 ^" ans[0]~0_combout $end
$var wire 1 _" a[0]~0_combout $end
$var wire 1 `" km|num~3_combout $end
$var wire 1 a" km|Selector3~4_combout $end
$var wire 1 b" km|Selector0~0_combout $end
$var wire 1 c" km|Selector0~1_combout $end
$var wire 1 d" km|Selector0~2_combout $end
$var wire 1 e" km|out[7]~feeder_combout $end
$var wire 1 f" b[0]~0_combout $end
$var wire 1 g" b[7]~reg0_q $end
$var wire 1 h" b[6]~reg0_q $end
$var wire 1 i" km|out[13]~feeder_combout $end
$var wire 1 j" b[5]~reg0_q $end
$var wire 1 k" km|num~0_combout $end
$var wire 1 l" km|Selector3~5_combout $end
$var wire 1 m" km|Selector3~6_combout $end
$var wire 1 n" km|Selector3~7_combout $end
$var wire 1 o" km|Selector3~8_combout $end
$var wire 1 p" km|out[0]~feeder_combout $end
$var wire 1 q" b[4]~reg0feeder_combout $end
$var wire 1 r" b[4]~reg0_q $end
$var wire 1 s" b[3]~reg0_q $end
$var wire 1 t" b[2]~reg0_q $end
$var wire 1 u" b[1]~reg0feeder_combout $end
$var wire 1 v" b[1]~reg0_q $end
$var wire 1 w" b[0]~reg0_q $end
$var wire 1 x" Add0~1 $end
$var wire 1 y" Add0~3 $end
$var wire 1 z" Add0~6 $end
$var wire 1 {" Add0~9 $end
$var wire 1 |" Add0~12 $end
$var wire 1 }" Add0~15 $end
$var wire 1 ~" Add0~18 $end
$var wire 1 !# Add0~21 $end
$var wire 1 "# Add0~23_combout $end
$var wire 1 ## Add0~25_combout $end
$var wire 1 $# a[7]~reg0_q $end
$var wire 1 %# Add0~20_combout $end
$var wire 1 &# Add0~22_combout $end
$var wire 1 '# a[6]~reg0_q $end
$var wire 1 (# Add0~17_combout $end
$var wire 1 )# Add0~19_combout $end
$var wire 1 *# a[5]~reg0_q $end
$var wire 1 +# Add0~14_combout $end
$var wire 1 ,# Add0~16_combout $end
$var wire 1 -# a[4]~reg0_q $end
$var wire 1 .# Add0~11_combout $end
$var wire 1 /# Add0~13_combout $end
$var wire 1 0# a[3]~reg0_q $end
$var wire 1 1# Add0~8_combout $end
$var wire 1 2# Add0~10_combout $end
$var wire 1 3# a[2]~reg0_q $end
$var wire 1 4# Add0~5_combout $end
$var wire 1 5# Add0~7_combout $end
$var wire 1 6# a[1]~reg0_q $end
$var wire 1 7# Add0~2_combout $end
$var wire 1 8# Add0~4_combout $end
$var wire 1 9# a[0]~reg0_q $end
$var wire 1 :# c[7]~8_combout $end
$var wire 1 ;# Add0~0_combout $end
$var wire 1 <# c[7]~7_combout $end
$var wire 1 =# c[7]~9_combout $end
$var wire 1 ># c[7]~reg0_q $end
$var wire 1 ?# c~6_combout $end
$var wire 1 @# c[6]~reg0feeder_combout $end
$var wire 1 A# c[6]~reg0_q $end
$var wire 1 B# c~5_combout $end
$var wire 1 C# c[5]~reg0_q $end
$var wire 1 D# c~4_combout $end
$var wire 1 E# c[4]~reg0_q $end
$var wire 1 F# c~3_combout $end
$var wire 1 G# c[3]~reg0_q $end
$var wire 1 H# c~2_combout $end
$var wire 1 I# c[2]~reg0_q $end
$var wire 1 J# c~1_combout $end
$var wire 1 K# c[1]~reg0_q $end
$var wire 1 L# c~0_combout $end
$var wire 1 M# c[0]~reg0_q $end
$var wire 1 N# ans[0]~1_combout $end
$var wire 1 O# ans[0]~reg0_q $end
$var wire 1 P# ans[1]~reg0_q $end
$var wire 1 Q# ans[2]~reg0_q $end
$var wire 1 R# ans[3]~reg0feeder_combout $end
$var wire 1 S# ans[3]~reg0_q $end
$var wire 1 T# ans[4]~reg0_q $end
$var wire 1 U# ans[5]~reg0feeder_combout $end
$var wire 1 V# ans[5]~reg0_q $end
$var wire 1 W# ans[6]~reg0_q $end
$var wire 1 X# ans[7]~reg0feeder_combout $end
$var wire 1 Y# ans[7]~reg0_q $end
$var wire 1 Z# ans[8]~reg0feeder_combout $end
$var wire 1 [# ans[8]~reg0_q $end
$var wire 1 \# ans[9]~reg0_q $end
$var wire 1 ]# ans[10]~reg0_q $end
$var wire 1 ^# ans[11]~reg0_q $end
$var wire 1 _# ans[12]~reg0_q $end
$var wire 1 `# ans[13]~reg0_q $end
$var wire 1 a# ans[14]~reg0_q $end
$var wire 1 b# ans[15]~reg0_q $end
$var wire 1 c# sd|sel[0]~2_combout $end
$var wire 1 d# sd|sel[1]~0_combout $end
$var wire 1 e# sd|sel[2]~1_combout $end
$var wire 1 f# sd|Mux2~0_combout $end
$var wire 1 g# sd|Mux2~1_combout $end
$var wire 1 h# sd|Mux2~2_combout $end
$var wire 1 i# sd|Mux2~3_combout $end
$var wire 1 j# sd|Mux2~4_combout $end
$var wire 1 k# sd|Mux1~0_combout $end
$var wire 1 l# sd|Mux1~1_combout $end
$var wire 1 m# sd|Mux1~2_combout $end
$var wire 1 n# sd|Mux1~3_combout $end
$var wire 1 o# sd|Mux1~4_combout $end
$var wire 1 p# sd|Mux0~0_combout $end
$var wire 1 q# sd|Mux0~1_combout $end
$var wire 1 r# sd|Mux0~2_combout $end
$var wire 1 s# sd|Mux0~3_combout $end
$var wire 1 t# sd|Mux0~4_combout $end
$var wire 1 u# sd|Mux3~0_combout $end
$var wire 1 v# sd|Mux3~1_combout $end
$var wire 1 w# sd|Mux3~2_combout $end
$var wire 1 x# sd|Mux3~3_combout $end
$var wire 1 y# sd|Mux3~4_combout $end
$var wire 1 z# sd|WideOr6~0_combout $end
$var wire 1 {# sd|WideOr5~0_combout $end
$var wire 1 |# sd|WideOr4~0_combout $end
$var wire 1 }# sd|WideOr3~0_combout $end
$var wire 1 ~# sd|WideOr2~0_combout $end
$var wire 1 !$ sd|WideOr1~0_combout $end
$var wire 1 "$ sd|WideOr0~0_combout $end
$var wire 1 #$ km|cnt [1] $end
$var wire 1 $$ km|cnt [0] $end
$var wire 1 %$ sd|num [3] $end
$var wire 1 &$ sd|num [2] $end
$var wire 1 '$ sd|num [1] $end
$var wire 1 ($ sd|num [0] $end
$var wire 1 )$ km|KEY_C [3] $end
$var wire 1 *$ km|KEY_C [2] $end
$var wire 1 +$ km|KEY_C [1] $end
$var wire 1 ,$ km|KEY_C [0] $end
$var wire 1 -$ km|num [4] $end
$var wire 1 .$ km|num [3] $end
$var wire 1 /$ km|num [2] $end
$var wire 1 0$ km|num [1] $end
$var wire 1 1$ km|num [0] $end
$var wire 1 2$ km|out [15] $end
$var wire 1 3$ km|out [14] $end
$var wire 1 4$ km|out [13] $end
$var wire 1 5$ km|out [12] $end
$var wire 1 6$ km|out [11] $end
$var wire 1 7$ km|out [10] $end
$var wire 1 8$ km|out [9] $end
$var wire 1 9$ km|out [8] $end
$var wire 1 :$ km|out [7] $end
$var wire 1 ;$ km|out [6] $end
$var wire 1 <$ km|out [5] $end
$var wire 1 =$ km|out [4] $end
$var wire 1 >$ km|out [3] $end
$var wire 1 ?$ km|out [2] $end
$var wire 1 @$ km|out [1] $end
$var wire 1 A$ km|out [0] $end
$var wire 1 B$ sd|sel [2] $end
$var wire 1 C$ sd|sel [1] $end
$var wire 1 D$ sd|sel [0] $end
$upscope $end
$upscope $end
$enddefinitions $end
#0
$dumpvars
b1111 !
0"
0#
0$
0%
0&
0*
0)
0(
0'
0J
0I
0H
0G
0F
0E
0D
0C
0B
0A
0@
0?
0>
0=
0<
0;
0:
09
08
07
06
05
04
03
02
01
00
0/
0.
0-
0,
0+
0S
0R
0Q
0P
0O
0N
0M
0L
0K
0c
0b
0a
0`
0_
0^
0]
0\
0[
0Z
0Y
0X
0W
0V
0U
0T
0k
0j
0i
0h
0g
0f
0e
0d
0s
0r
0q
0p
0o
0n
0m
0l
1{
1z
1y
1x
1w
1v
0u
0t
0!!
0~
0}
0|
0"!
0#!
0&!
0%!
0$!
0)!
0(!
0'!
x*!
0+!
1,!
x-!
1.!
1/!
10!
01!
02!
03!
04!
05!
06!
07!
08!
09!
0:!
0;!
0<!
0=!
0>!
0?!
0@!
0A!
0B!
0C!
0D!
0E!
0F!
0G!
0H!
0I!
0J!
0K!
0L!
0M!
0N!
0O!
0P!
0Q!
0R!
0S!
0T!
0U!
0V!
0W!
0X!
0Y!
0Z!
0[!
0\!
0]!
0^!
0_!
0`!
0a!
0b!
0c!
0d!
0e!
0f!
0g!
0h!
0i!
0j!
0k!
0l!
0m!
0n!
0o!
0p!
0q!
0r!
0s!
0t!
0u!
0v!
0w!
0x!
0y!
0z!
0{!
0|!
0}!
0~!
0!"
0""
0#"
0$"
0%"
1&"
1'"
1("
1)"
1*"
1+"
0,"
0-"
0."
0/"
00"
01"
02"
03"
04"
05"
06"
07"
08"
09"
0:"
1;"
0<"
0="
1>"
0?"
1@"
1A"
1B"
1C"
1D"
1E"
1F"
0G"
1H"
1I"
1J"
1K"
0L"
0M"
0N"
1O"
0P"
0Q"
0R"
0S"
0T"
0U"
0V"
0W"
0X"
0Y"
0Z"
0["
0\"
0]"
0^"
0_"
0`"
1a"
0b"
0c"
0d"
0e"
0f"
0g"
0h"
0i"
0j"
0k"
1l"
1m"
1n"
0o"
0p"
0q"
0r"
0s"
0t"
0u"
0v"
0w"
0x"
1y"
0z"
1{"
0|"
1}"
0~"
1!#
0"#
0##
0$#
0%#
0&#
0'#
0(#
0)#
0*#
0+#
0,#
0-#
0.#
0/#
00#
01#
02#
03#
04#
05#
06#
07#
08#
09#
0:#
0;#
0<#
0=#
0>#
0?#
0@#
0A#
0B#
0C#
0D#
0E#
0F#
0G#
0H#
0I#
0J#
0K#
0L#
0M#
0N#
0O#
0P#
0Q#
0R#
0S#
0T#
0U#
0V#
0W#
0X#
0Y#
0Z#
0[#
0\#
0]#
0^#
0_#
0`#
0a#
0b#
1c#
0d#
0e#
0f#
0g#
0h#
0i#
0j#
0k#
0l#
0m#
0n#
0o#
0p#
0q#
0r#
0s#
0t#
0u#
0v#
0w#
0x#
0y#
0z#
0{#
0|#
0}#
0~#
0!$
0"$
0$$
0#$
0($
0'$
0&$
0%$
0,$
0+$
0*$
0)$
01$
00$
0/$
0.$
z-$
0A$
0@$
0?$
0>$
0=$
0<$
0;$
0:$
09$
08$
07$
06$
05$
04$
03$
02$
0D$
0C$
0B$
$end
#20000
1"
14"
15"
0*!
1$$
1D$
1)$
1*$
1,$
0@"
1?"
1="
0;"
1d#
0c#
1c"
0K"
0J"
0I"
0m"
0O"
1."
16!
15!
13!
1)!
1'
1(
1*
1K"
1P"
0n"
#40000
0"
04"
05"
1*!
#50000
b1110 !
0D"
0*!
0H"
0F"
1o"
0a"
1Q"
1L"
1p"
1k"
1b"
1N"
1G"
1d"
1`"
#60000
1"
14"
15"
1*!
11$
1.$
1/$
10$
1#$
0$$
1C$
0D$
1A$
1>$
1?$
1@$
0*$
1+$
0A"
1@"
1;"
1x#
1r#
1m#
1h#
1c#
1L#
1F#
1e"
1H#
1R"
1J#
1M"
1m"
0c"
1O"
0K"
1J"
1/"
0."
1t!
1w!
1v!
1u!
05!
14!
1(!
0)!
1:
17
18
19
0(
1)
1y#
1s#
1n#
1i#
1n"
0d"
0P"
0L"
1t#
1o#
1j#
0o"
0`"
0Q"
0G"
0p"
0k"
0N"
#70000
b1111 !
1D"
0*!
1H"
1F"
1o"
1a"
1Q"
1L"
1p"
1d"
#80000
0"
04"
05"
1*!
#90000
b1101 !
0B"
0*!
0l"
1c"
0H"
0F"
0n"
0m"
0o"
0a"
0Q"
0L"
1k"
1`"
1N"
1G"
1o"
1n"
0p"
0k"
0N"
0G"
1p"
1k"
0o"
0p"
0k"
#100000
1"
14"
15"
1*!
1($
1%$
1&$
1'$
01$
0/$
00$
1$$
1D$
1=$
0A$
1:$
1;$
0?$
1<$
0@$
0)$
1*$
1}#
1|#
1{#
1A"
0>"
0="
0;"
1w#
1u#
0s#
1p#
0n#
1k#
0i#
1f#
1e#
0d#
0c#
1D#
0x#
0L#
1:#
1?#
0H#
0R"
1B#
0J#
0M"
0n"
0c"
1P"
1K"
0O"
1."
1x!
0t!
1{!
1z!
0v!
1y!
0u!
06!
15!
1)!
16
0:
13
14
08
15
09
0'
1(
1"$
0t#
0o#
0j#
0y#
1@#
1o"
0d"
1Q"
1L"
0)"
0("
0'"
1,"
0x
0y
0z
1u
1p"
1k"
0`"
1N"
1G"
#110000
b1111 !
1B"
0*!
1l"
1c"
1H"
1F"
1n"
1d"
0o"
1a"
0Q"
0L"
0k"
0N"
0G"
0p"
#120000
0"
04"
05"
1*!
#130000
b1011 !
0C"
0*!
1O"
0J"
0H"
0F"
0K"
0a"
1Q"
1L"
1`"
0L"
0b"
1N"
1G"
0G"
0c"
0d"
0`"
#140000
1"
14"
15"
1*!
0($
0%$
0&$
0'$
0.$
1/$
0#$
0$$
1B$
0C$
0D$
19$
0=$
18$
17$
16$
0>$
0;$
1?$
0<$
1)$
0,$
0}#
0|#
0{#
0?"
1>"
1;"
1x#
1v#
0u#
1q#
0p#
1l#
0k#
1g#
0f#
1s#
1n#
1i#
1c#
0D#
1u"
1i"
0F#
0e"
0?#
1H#
1R"
0B#
0n"
1c"
0P"
1K"
10"
0/"
0."
1|!
0x!
1}!
1~!
1!"
0w!
0z!
1v!
0y!
16!
03!
1'!
0(!
0)!
12
06
11
10
1/
07
04
18
05
1'
0*
0"$
1y#
0v#
1t#
0q#
1o#
0l#
1j#
0g#
0@#
1o"
1d"
0Q"
1L"
1)"
1("
1'"
0,"
1x
1y
1z
0u
0y#
0t#
0o#
0j#
1p"
1k"
1`"
0N"
1G"
#150000
b1111 !
1C"
0*!
1b"
0O"
1J"
1H"
1F"
1P"
0K"
0o"
1a"
1Q"
0L"
0k"
0`"
0G"
0p"
0b"
0d"
#160000
0"
04"
05"
1*!
#170000
b111 !
0E"
0*!
0l"
0P"
1K"
0H"
0F"
1n"
0Q"
1L"
1o"
0a"
1N"
0o"
0N"
1G"
1p"
1k"
1d"
0p"
0k"
1`"
#180000
1"
14"
15"
1*!
1.$
0/$
10$
1$$
1D$
15$
09$
14$
08$
13$
07$
12$
0:$
1>$
1;$
0?$
1@$
0+$
1,$
0@"
1?"
1="
0;"
0w#
0s#
0r#
0n#
0m#
0i#
0h#
1d#
0c#
1q"
0u"
0i"
0:#
1F#
1e"
1?#
0H#
0R"
1J#
1M"
1m"
0d"
0J"
1."
1""
0|!
1#"
0}!
1$"
0~!
1%"
0{!
1w!
1z!
0v!
1u!
04!
13!
1)!
1.
02
1-
01
1,
00
1+
03
17
14
08
19
0)
1*
0x#
1n#
1@#
0n"
0`"
1o"
1p"
1k"
#190000
b1111 !
1E"
0*!
1l"
1b"
1P"
1H"
1F"
1n"
0m"
1d"
0o"
1a"
0k"
0G"
0n"
0p"
#200000
0"
04"
05"
1*!
#220000
1"
14"
15"
0*!
0.$
00$
1#$
0$$
1C$
0D$
0*$
1+$
0b"
0L"
0A"
1@"
1;"
1r#
1h#
0n#
1c#
1m"
0c"
1O"
0K"
1J"
1/"
0."
05!
14!
1(!
0)!
0(
1)
0d"
1s#
1i#
1n"
0P"
#240000
0"
04"
05"
1*!
#250000
1$
16"
0*!
1f"
1_"
#260000
1"
14"
15"
1*!
1$$
1D$
1K#
1G#
1A#
1s"
1r"
1j"
1h"
1g"
0)$
1*$
17"
1A"
0>"
0="
0;"
1w#
1u#
0s#
1p#
1n#
1m#
1k#
0i#
1f#
0e#
0d#
0c#
1L#
1R#
1H#
1B#
11#
1.#
1+#
1(#
1%#
1P"
1K"
0m"
0O"
0J#
0F#
0?#
0f"
1U"
1S"
1."
1Y!
1[!
1^!
1S!
1T!
1U!
1V!
1W!
06!
15!
11!
1)!
1r
1p
1m
1h
1g
1f
1e
1d
0'
1(
1#!
1v#
1q#
0n#
1l#
1g#
0@#
1y#
1t#
1o#
1j#
#280000
0"
04"
05"
0*!
#300000
1"
14"
15"
1*!
1($
1%$
1&$
1'$
0#$
0$$
0B$
0C$
0D$
1M#
0K#
1I#
0G#
1C#
0A#
1T"
1)$
0,$
1}#
1|#
1{#
0?"
1>"
1;"
0y#
0t#
0o#
0j#
1x#
0w#
0u#
0p#
0m#
0k#
0h#
0f#
1s#
1n#
1i#
1c#
12#
1/#
1,#
1)#
1&#
0L#
1J#
0R#
0H#
1U#
1D#
0B#
1V"
0S"
0n"
1c"
0K"
00"
0/"
0."
1X!
0Y!
1Z!
0[!
1]!
0^!
1`!
16!
03!
0'!
0(!
0)!
1s
0r
1q
0p
1n
0m
1!!
1'
0*
1"$
1y#
0x#
0v#
0q#
0n#
0l#
0i#
0g#
1t#
1o#
1j#
0)"
0("
0'"
1,"
0x
0y
0z
1u
0y#
0o#
0j#
#320000
0"
04"
05"
0*!
#340000
1"
14"
15"
1*!
0($
0&$
0'$
1$$
1D$
0M#
1K#
0I#
1E#
0C#
13#
10#
1-#
1*#
1'#
1W"
0T"
0+$
1,$
0}#
0|#
0{#
0@"
1?"
1="
0;"
0s#
0r#
1n#
1d#
0c#
15#
0&#
1L#
0J#
1F#
0U#
0D#
14#
0{"
01#
1|"
0.#
0}"
0+#
1~"
0(#
1S"
0J"
1."
0X!
1Y!
0Z!
1\!
0]!
1I!
1J!
1K!
1L!
1M!
1a!
0`!
04!
13!
1)!
0s
1r
0q
1o
0n
1Q
1P
1O
1N
1M
1~
0!!
0)
1*
0t#
1o#
1.#
1+#
1(#
0!#
0%#
1K"
1)"
1("
1'"
1x
1y
1z
1"#
#360000
0"
04"
05"
0*!
#380000
1"
14"
15"
1*!
0%$
1&$
1#$
0$$
1C$
0D$
1M#
0K#
1G#
0E#
16#
0'#
1T"
0*$
1+$
1~#
1}#
1z#
0A"
1@"
1;"
1r#
1h#
0n#
1c#
02#
1##
0L#
1R#
1H#
0F#
17#
0(#
1X"
0V"
0S"
1m"
0c"
1O"
0K"
1J"
1/"
0."
1X!
0Y!
1[!
0\!
1H!
0M!
1`!
05!
14!
1(!
0)!
1s
0r
1p
0o
1R
0M
1!!
0(
1)
1s#
1i#
0o#
18#
0)#
1Y"
1n"
0P"
0*"
0)"
0&"
0w
0x
0{
1t#
1j#
#400000
0"
04"
05"
0*!
#420000
1"
14"
15"
1*!
1%$
0&$
1'$
1$$
1D$
0M#
1I#
0G#
19#
03#
0*#
1$#
1Z"
0W"
0T"
0)$
1*$
0~#
0z#
1A"
0>"
0="
0;"
1w#
1u#
0s#
1p#
1n#
1m#
1k#
0i#
1f#
1e#
0d#
0c#
1:#
05#
12#
0,#
1&#
0##
1J#
0R#
0H#
1Z#
1;#
04#
0+#
1%#
1S"
1P"
1K"
0m"
0O"
1."
0X!
1Z!
0[!
1G!
0I!
0L!
1N!
1b!
0a!
0`!
06!
15!
1)!
0s
1q
0p
1S
0Q
0N
1L
1}
0~
0!!
0'
1(
1v#
0t#
1q#
1o#
0n#
1l#
0j#
1g#
1=#
1*"
1&"
1w
1{
0o#
#440000
0"
04"
05"
0*!
#460000
1"
14"
15"
1*!
0%$
0'$
0#$
0$$
1B$
0C$
0D$
1K#
0I#
1>#
06#
13#
0-#
1'#
0$#
1T"
1)$
0,$
0}#
0?"
1>"
1;"
1y#
1t#
1o#
1j#
1x#
0w#
0u#
0p#
0m#
0k#
0h#
0f#
1s#
1n#
1i#
1c#
1L#
0J#
1X#
1?#
08#
07#
15#
14#
0/#
0.#
1)#
1(#
0&#
0%#
1V"
0S"
0n"
1c"
0K"
10"
0/"
0."
1Y!
0Z!
1_!
0H!
1I!
0K!
1M!
0N!
1`!
16!
03!
1'!
0(!
0)!
1r
0q
1l
0R
1Q
0O
1M
0L
1!!
1'
0*
0"$
0x#
0v#
0q#
0n#
0l#
0i#
0g#
1@#
1)"
0,"
1x
0u
0y#
0t#
0o#
0j#
#480000
0"
04"
05"
0*!
